<svg xmlns="http://www.w3.org/2000/svg" width="17" height="20" viewBox="0 0 17 20">
  <metadata><?xpacket begin="﻿" id="W5M0MpCehiHzreSzNTczkc9d"?>
<x:xmpmeta xmlns:x="adobe:ns:meta/" x:xmptk="Adobe XMP Core 5.6-c138 79.159824, 2016/09/14-01:09:01        ">
   <rdf:RDF xmlns:rdf="http://www.w3.org/1999/02/22-rdf-syntax-ns#">
      <rdf:Description rdf:about=""/>
   </rdf:RDF>
</x:xmpmeta>
                                                                                                    
                                                                                                    
                                                                                                    
                                                                                                    
                                                                                                    
                                                                                                    
                                                                                                    
                                                                                                    
                                                                                                    
                                                                                                    
                                                                                                    
                                                                                                    
                                                                                                    
                                                                                                    
                                                                                                    
                                                                                                    
                                                                                                    
                                                                                                    
                                                                                                    
                                                                                                    
                           
<?xpacket end="w"?></metadata>
<defs>
    <style>
      .cls-1 {
        fill: #5ab854;
        fill-rule: evenodd;
      }
    </style>
  </defs>
  <path class="cls-1" d="M8.44,10.774H8.572a3.82,3.82,0,0,0,2.92-1.263c1.595-1.8,1.329-4.879,1.3-5.172A4.224,4.224,0,0,0,10.784.582,4.606,4.606,0,0,0,8.556,0H8.485A4.6,4.6,0,0,0,6.258.565,4.229,4.229,0,0,0,4.224,4.338c-0.029.293-.294,3.375,1.3,5.172A3.8,3.8,0,0,0,8.44,10.774ZM5.33,4.442c0-.012,0-0.025,0-0.033C5.471,1.44,7.579,1.12,8.481,1.12h0.05c1.118,0.024,3.019.48,3.147,3.288a0.082,0.082,0,0,0,0,.033c0,0.029.294,2.845-1.023,4.328a2.714,2.714,0,0,1-2.133.886H8.485A2.7,2.7,0,0,1,6.357,8.77C5.044,7.3,5.326,4.467,5.33,4.442ZM17.017,15.885V15.873c0-.034,0-0.066,0-0.1-0.025-.82-0.079-2.739-1.876-3.35L15.1,12.407a11.929,11.929,0,0,1-3.437-1.567,0.559,0.559,0,0,0-.642.915A12.891,12.891,0,0,0,14.8,13.483c0.965,0.343,1.073,1.375,1.1,2.319a0.852,0.852,0,0,0,0,.1,7.515,7.515,0,0,1-.087,1.279,15.232,15.232,0,0,1-7.3,1.7,15.321,15.321,0,0,1-7.305-1.7A7.1,7.1,0,0,1,1.122,15.9c0-.033,0-0.066,0-0.1,0.029-.944.137-1.975,1.1-2.318a13.044,13.044,0,0,0,3.781-1.728,0.559,0.559,0,1,0-.642-0.915A11.808,11.808,0,0,1,1.93,12.4l-0.041.012c-1.8.616-1.851,2.535-1.876,3.35a0.85,0.85,0,0,1,0,.1v0.012a6.347,6.347,0,0,0,.211,1.876,0.533,0.533,0,0,0,.215.261A15.666,15.666,0,0,0,8.519,20,15.71,15.71,0,0,0,16.6,18.018a0.556,0.556,0,0,0,.215-0.261A6.663,6.663,0,0,0,17.017,15.885Z"/>
</svg>
