<svg xmlns="http://www.w3.org/2000/svg" width="20" height="20" viewBox="0 0 20 20">
  <metadata><?xpacket begin="﻿" id="W5M0MpCehiHzreSzNTczkc9d"?>
<x:xmpmeta xmlns:x="adobe:ns:meta/" x:xmptk="Adobe XMP Core 5.6-c138 79.159824, 2016/09/14-01:09:01        ">
   <rdf:RDF xmlns:rdf="http://www.w3.org/1999/02/22-rdf-syntax-ns#">
      <rdf:Description rdf:about=""/>
   </rdf:RDF>
</x:xmpmeta>
                                                                                                    
                                                                                                    
                                                                                                    
                                                                                                    
                                                                                                    
                                                                                                    
                                                                                                    
                                                                                                    
                                                                                                    
                                                                                                    
                                                                                                    
                                                                                                    
                                                                                                    
                                                                                                    
                                                                                                    
                                                                                                    
                                                                                                    
                                                                                                    
                                                                                                    
                                                                                                    
                           
<?xpacket end="w"?></metadata>
<defs>
    <style>
      .cls-1 {
        fill: #9c9c9c;
        fill-rule: evenodd;
      }
    </style>
  </defs>
  <path class="cls-1" d="M14.179,19.99c0.09,0,.176.008,0.267,0.008a3.141,3.141,0,0,0,2.4-1.034l0.016-.017a9.748,9.748,0,0,1,.751-0.776c0.185-.176.374-0.357,0.55-0.544a1.9,1.9,0,0,0-.008-2.836l-2.34-2.338a1.918,1.918,0,0,0-1.392-.64,1.981,1.981,0,0,0-1.4.631l-1.384,1.383c-0.123-.069-0.25-0.131-0.373-0.192-0.156-.078-0.3-0.152-0.427-0.23a14.666,14.666,0,0,1-3.518-3.2A8.263,8.263,0,0,1,6.141,8.322c0.361-.329.7-0.669,1.022-1C7.282,7.2,7.4,7.078,7.524,6.956a1.859,1.859,0,0,0,0-2.84L6.363,2.954c-0.135-.135-0.267-0.271-0.4-0.4C5.706,2.291,5.439,2.015,5.172,1.769a1.944,1.944,0,0,0-1.383-.611,2.026,2.026,0,0,0-1.4.611L0.927,3.221a3.037,3.037,0,0,0-.9,1.933A7.251,7.251,0,0,0,.566,8.279a18.292,18.292,0,0,0,3.243,5.409,20.019,20.019,0,0,0,6.647,5.2A10.348,10.348,0,0,0,14.179,19.99ZM4.585,13.044A17.3,17.3,0,0,1,1.514,7.932a6.221,6.221,0,0,1-.484-2.7,2.008,2.008,0,0,1,.612-1.305L3.091,2.483a1.025,1.025,0,0,1,.7-0.324,0.985,0.985,0,0,1,.686.328c0.259,0.242.509,0.5,0.772,0.763,0.131,0.135.267,0.274,0.406,0.41L6.818,4.822a0.883,0.883,0,0,1,0,1.419C6.7,6.363,6.572,6.487,6.453,6.61c-0.361.365-.7,0.71-1.072,1.043l-0.021.02a0.783,0.783,0,0,0-.2.891c0,0.012.008,0.02,0.012,0.032a9.246,9.246,0,0,0,1.371,2.228,15.676,15.676,0,0,0,3.765,3.427c0.168,0.106.345,0.2,0.517,0.282,0.156,0.078.3,0.152,0.427,0.23,0.016,0.008.029,0.018,0.045,0.026a0.87,0.87,0,0,0,.39.1,0.823,0.823,0,0,0,.6-0.274l1.457-1.456a1,1,0,0,1,.694-0.336,0.979,0.979,0,0,1,.673.336L17.455,15.5a0.922,0.922,0,0,1-.012,1.433c-0.164.176-.337,0.34-0.517,0.516a10.6,10.6,0,0,0-.817.845,2.117,2.117,0,0,1-1.655.7c-0.066,0-.135,0-0.2-0.008a9.4,9.4,0,0,1-3.35-1A18.873,18.873,0,0,1,4.585,13.044ZM11,3.648a0.5,0.5,0,1,0-.168.99,5.548,5.548,0,0,1,4.52,4.516,0.5,0.5,0,0,0,.5.42,0.552,0.552,0,0,0,.086-0.008,0.5,0.5,0,0,0,.411-0.579A6.545,6.545,0,0,0,11,3.648ZM19.5,9.4a0.667,0.667,0,0,0,.086-0.008A0.5,0.5,0,0,0,20,8.813,10.825,10.825,0,0,0,11.17-.008,0.5,0.5,0,0,0,11,.982a9.825,9.825,0,0,1,8.006,8A0.5,0.5,0,0,0,19.5,9.4Z"/>
</svg>
